{
  "director": "Menu",
  "background": "#000000",
  "showMouse": true,
  "layout": "default",
  "snapToGrid": {
    "enabled": false,
    "xSpacing": 50,
    "ySpacing": 50,
    "xOffset": 0,
    "yOffset": 0,
    "xCloseness": 10,
    "yCloseness": 10
  },
  "snapToGuides": {
    "enabled": true,
    "closeness": 5,
    "x": [
      
    ],
    "y": [
      
    ]
  },
  "snapToOthers": {
    "enabled": true,
    "xCloseness": 10,
    "yCloseness": 10
  },
  "snapRotation": {
    "enabled": true,
    "step": 15,
    "closeness": 15
  },
  "include": [
    
  ],
  "stages": [
    {
      "name": "main",
      "actors": [
        {
          "costume": "StandardGameButton",
          "name": "beginner",
          "x": 155.5,
          "y": 279,
          "text": "Beginner",
          "direction": 0,
          "scaleX": 1,
          "scaleY": 1,
          "attributes": [
            {
              "name": "across",
              "value": "9"
            },
            {
              "name": "down",
              "value": "9"
            },
            {
              "name": "mineCount",
              "value": "10"
            }
          ]
        },
        {
          "costume": "StandardGameButton",
          "name": "intermediate",
          "x": 152.5,
          "y": 217,
          "text": "Intermediate",
          "direction": 0,
          "scaleX": 1,
          "scaleY": 1,
          "attributes": [
            {
              "name": "across",
              "value": "16"
            },
            {
              "name": "down",
              "value": "16"
            },
            {
              "name": "mineCount",
              "value": "40"
            }
          ]
        },
        {
          "costume": "StandardGameButton",
          "name": "expert",
          "x": 154,
          "y": 145.5,
          "text": "Expert",
          "direction": 0,
          "scaleX": 1,
          "scaleY": 1,
          "attributes": [
            {
              "name": "across",
              "value": "30"
            },
            {
              "name": "down",
              "value": "16"
            },
            {
              "name": "mineCount",
              "value": "99"
            }
          ]
        }
      ]
    }
  ]
}